{
    "a": {
        "recto": "a",
        "verso": "as",
        "trick": ""
    },
    "A": {
        "recto": "A",
        "verso": "Compas",
        "trick": ""
    },
    "b": {
        "recto": "b",
        "verso": "bourse",
        "trick": ""
    },
    "B": {
        "recto": "B",
        "verso": "lunette",
        "trick": ""
    },
    "c": {
        "recto": "c",
        "verso": "fer à cheval",
        "trick": ""
    },
    "C": {
        "recto": "C",
        "verso": "Lune",
        "trick": ""
    },
    "d": {
        "recto": "d",
        "verso": "dé",
        "trick": ""
    },
    "D": {
        "recto": "D",
        "verso": "arc",
        "trick": ""
    },
    "e": {
        "recto": "e",
        "verso": "bague",
        "trick": ""
    },
    "E": {
        "recto": "E",
        "verso": "peigne",
        "trick": ""
    },
    "f": {
        "recto": "f",
        "verso": "",
        "trick": ""
    },
    "g": {
        "recto": "g",
        "verso": "geai",
        "trick": ""
    },
    "h": {
        "recto": "h",
        "verso": "hache",
        "trick": ""
    },
    "i": {
        "recto": "i",
        "verso": "bougie",
        "trick": ""
    },
    "j": {
        "recto": "j",
        "verso": "parapluie",
        "trick": ""
    },
    "k": {
        "recto": "k",
        "verso": "carte (plan)",
        "trick": ""
    },
    "l": {
        "recto": "l",
        "verso": "aile",
        "trick": ""
    },
    "m": {
        "recto": "m",
        "verso": "aqueduc",
        "trick": ""
    },
    "n": {
        "recto": "n",
        "verso": "pantalon",
        "trick": ""
    },
    "o": {
        "recto": "o",
        "verso": "collier",
        "trick": ""
    },
    "p": {
        "recto": "p",
        "verso": "pélican",
        "trick": ""
    },
    "q": {
        "recto": "q",
        "verso": "cubitus",
        "trick": "Q-bitus"
    },
    "r": {
        "recto": "r",
        "verso": "arbalète",
        "trick": ""
    },
    "s": {
        "recto": "s",
        "verso": "esse",
        "trick": ""
    },
    "t": {
        "recto": "t",
        "verso": "cimeterre",
        "trick": ""
    },
    "u": {
        "recto": "u",
        "verso": "aimant",
        "trick": ""
    },
    "v": {
        "recto": "v",
        "verso": "griffe",
        "trick": ""
    },
    "w": {
        "recto": "w",
        "verso": "ressort",
        "trick": ""
    },
    "x": {
        "recto": "x",
        "verso": "ciseaux",
        "trick": ""
    },
    "y": {
        "recto": "y",
        "verso": "giraffe",
        "trick": "reflet"
    },
    "z": {
        "recto": "z",
        "verso": "hameçon",
        "trick": "zameçon"
    }
}